%!PS-Adobe-3.0 EPSF-3.0 
%%BoundingBox: 0 0 70 119
%%Pages: 0
%%Creator: LibreOffice 3.5
%%Title: none
%%CreationDate: none
%%LanguageLevel: 2
%%EndComments
%%BeginProlog
%%BeginResource: procset SDRes-Prolog 1.0 0
/b4_inc_state save def
/dict_count countdictstack def
/op_count count 1 sub def
userdict begin
0 setgray 0 setlinecap 1 setlinewidth 0 setlinejoin 10 setmiterlimit[] 0 setdash newpath
/languagelevel where {pop languagelevel 1 ne {false setstrokeadjust false setoverprint} if} if
/bdef {bind def} bind def
/c {setrgbcolor} bdef
/l {neg lineto} bdef
/rl {neg rlineto} bdef
/lc {setlinecap} bdef
/lj {setlinejoin} bdef
/lw {setlinewidth} bdef
/ml {setmiterlimit} bdef
/ld {setdash} bdef
/m {neg moveto} bdef
/ct {6 2 roll neg 6 2 roll neg 6 2 roll neg curveto} bdef
/r {rotate} bdef
/t {neg translate} bdef
/s {scale} bdef
/sw {show} bdef
/gs {gsave} bdef
/gr {grestore} bdef
/f {findfont dup length dict begin
{1 index /FID ne {def} {pop pop} ifelse} forall /Encoding ISOLatin1Encoding def
currentdict end /NFont exch definefont pop /NFont findfont} bdef
/p {closepath} bdef
/sf {scalefont setfont} bdef
/ef {eofill}bdef
/pc {closepath stroke}bdef
/ps {stroke}bdef
/pum {matrix currentmatrix}bdef
/pom {setmatrix}bdef
/bs {/aString exch def /nXOfs exch def /nWidth exch def currentpoint nXOfs 0 rmoveto pum nWidth aString stringwidth pop div 1 scale aString show pom moveto} bdef
%%EndResource
%%EndProlog
%%BeginSetup
%%EndSetup
%%Page: 1 1
%%BeginPageSetup
%%EndPageSetup
pum
0.02843 0.02838 s 
0 -4192 t
/tm matrix currentmatrix def
tm setmatrix
-8097 -7998 t 
1 1 s 

pum
8347 11314 t
0.003 0.003 0.003 c 177 0 m  177 -219 l  236 -353 307 -472 392 -574 ct 476 -677 565 -770 658 -853 ct 
751 -937 843 -1014 934 -1085 ct 1026 -1156 1108 -1227 1181 -1299 ct 1255 -1370 1314 -1444 1360 -1523 ct 
1405 -1601 1428 -1689 1428 -1788 ct 1428 -1857 1417 -1917 1397 -1969 ct 1376 -2022 1346 -2066 1307 -2101 ct 
1268 -2137 1221 -2164 1167 -2181 ct 1112 -2199 1052 -2208 985 -2208 ct 923 -2208 865 -2199 810 -2182 ct 
756 -2165 707 -2139 665 -2105 ct 622 -2070 588 -2027 561 -1976 ct 534 -1925 516 -1866 508 -1798 ct 
191 -1827 l  201 -1915 226 -1997 263 -2074 ct 301 -2151 354 -2218 420 -2276 ct 
487 -2334 567 -2380 660 -2413 ct 754 -2446 862 -2463 985 -2463 ct 1106 -2463 1213 -2449 1307 -2420 ct 
1401 -2391 1481 -2349 1546 -2292 ct 1611 -2236 1660 -2167 1695 -2084 ct 1729 -2001 1746 -1906 1746 -1798 ct 
1746 -1717 1732 -1639 1702 -1566 ct 1673 -1492 1634 -1422 1585 -1355 ct 1536 -1289 1480 -1225 1416 -1163 ct 
1351 -1101 1284 -1040 1214 -981 ct 1144 -922 1073 -863 1002 -805 ct 931 -747 864 -689 802 -630 ct 
739 -572 683 -512 634 -452 ct 584 -392 546 -329 518 -264 ct 1784 -264 l  1784 0 l 
177 0 l  p ef
pom
0 4192 t 
pom
count op_count sub {pop} repeat countdictstack dict_count sub {end} repeat b4_inc_state restore
%%PageTrailer
%%Trailer
%%EOF
